{"name": "test_list_found[-1]", "status": "passed", "description": "\n        Valid page values.\n        ", "attachments": [{"name": "< GET /api/unknown?page=-1 HTTP/1.1\r\n< Host: reqres.in\r\n< User-Agent: Mozilla/5.0\r\n< Accept-Encoding: gzip, deflate\r\n< Accept: text/plain\r\n< Connection: keep-alive\r\n< Content-type: application/json\r\n< \r\n\r\n> HTTP/1.1 200 OK\r\n> Date: Sun, 05 Aug 2018 14:22:26 GMT\r\n> Content-Type: application/json; charset=utf-8\r\n> Transfer-Encoding: chunked\r\n> Connection: keep-alive\r\n> Set-Cookie: __cfduid=d0f144089a77de5646ecaa8259f3b31ec1533478946; expires=Mon, 05-Aug-19 14:22:26 GMT; path=/; domain=.reqres.in; HttpOnly\r\n> X-Powered-By: Express\r\n> Access-Control-Allow-Origin: *\r\n> ETag: W/\"13d-xVWBXe81rmLGLjJ8q1LiExqJrSE\"\r\n> Expect-CT: max-age=604800, report-uri=\"https://report-uri.cloudflare.com/cdn-cgi/beacon/expect-ct\"\r\n> Server: cloudflare\r\n> CF-RAY: 4459ea785d3697da-FRA\r\n> Content-Encoding: gzip\r\n> \r\n{\"page\":-1,\"per_page\":3,\"total\":12,\"total_pages\":4,\"data\":[{\"id\":7,\"name\":\"sand dollar\",\"year\":2006,\"color\":\"#DECDBE\",\"pantone_value\":\"13-1106\"},{\"id\":8,\"name\":\"chili pepper\",\"year\":2007,\"color\":\"#9B1B30\",\"pantone_value\":\"19-1557\"},{\"id\":9,\"name\":\"blue iris\",\"year\":2008,\"color\":\"#5A5B9F\",\"pantone_value\":\"18-3943\"}]}", "source": "03a42c4d-dc79-4fb1-82b8-945064979c86-attachment.attach"}], "parameters": [{"name": "page", "value": "-1"}], "start": 1533478946330, "stop": 1533478946973, "uuid": "a8d69b60-723c-4539-a6eb-9015982f3812", "historyId": "e90fc6864e314c3f01f5e52bba26c756", "fullName": "tests.method_get.test_resource.TestGetResource#test_list_found[-1]", "labels": [{"name": "severity", "value": "critical"}, {"name": "host", "value": "asus-UX32LN"}, {"name": "thread", "value": "9694-MainThread"}, {"name": "framework", "value": "pytest"}, {"name": "language", "value": "cpython3"}, {"name": "package", "value": "tests.method_get.test_resource"}]}