{"name": "test_list_page_ignored[0]", "status": "passed", "description": "\n        Page values of zero, None and string are substituted with 1.\n        ", "attachments": [{"name": "< GET /api/users?page=0 HTTP/1.1\r\n< Host: reqres.in\r\n< User-Agent: Mozilla/5.0\r\n< Accept-Encoding: gzip, deflate\r\n< Accept: text/plain\r\n< Connection: keep-alive\r\n< Content-type: application/json\r\n< \r\n\r\n> HTTP/1.1 200 OK\r\n> Date: Sun, 05 Aug 2018 14:22:37 GMT\r\n> Content-Type: application/json; charset=utf-8\r\n> Transfer-Encoding: chunked\r\n> Connection: keep-alive\r\n> Set-Cookie: __cfduid=dc02e9f814837d4daa6bc74ce73f7cbf91533478957; expires=Mon, 05-Aug-19 14:22:37 GMT; path=/; domain=.reqres.in; HttpOnly\r\n> X-Powered-By: Express\r\n> Access-Control-Allow-Origin: *\r\n> ETag: W/\"1bb-D+c3sZ5g5u/nmLPQRl1uVo2heAo\"\r\n> Expect-CT: max-age=604800, report-uri=\"https://report-uri.cloudflare.com/cdn-cgi/beacon/expect-ct\"\r\n> Server: cloudflare\r\n> CF-RAY: 4459eabcadebbef8-FRA\r\n> Content-Encoding: gzip\r\n> \r\n{\"page\":1,\"per_page\":3,\"total\":12,\"total_pages\":4,\"data\":[{\"id\":1,\"first_name\":\"George\",\"last_name\":\"Bluth\",\"avatar\":\"https://s3.amazonaws.com/uifaces/faces/twitter/calebogden/128.jpg\"},{\"id\":2,\"first_name\":\"Janet\",\"last_name\":\"Weaver\",\"avatar\":\"https://s3.amazonaws.com/uifaces/faces/twitter/josephstein/128.jpg\"},{\"id\":3,\"first_name\":\"Emma\",\"last_name\":\"Wong\",\"avatar\":\"https://s3.amazonaws.com/uifaces/faces/twitter/olegpogodaev/128.jpg\"}]}", "source": "134dc34b-2bf1-4221-a9bf-86695e842e8e-attachment.attach"}], "parameters": [{"name": "page", "value": "0"}], "start": 1533478957287, "stop": 1533478957891, "uuid": "23a11f4d-d8b5-420a-98a6-eb49431dd4ac", "historyId": "40e899fcc57f83ff70249aa2503f7240", "fullName": "tests.method_get.test_user.TestGetUser#test_list_page_ignored[0]", "labels": [{"name": "severity", "value": "normal"}, {"name": "host", "value": "asus-UX32LN"}, {"name": "thread", "value": "9694-MainThread"}, {"name": "framework", "value": "pytest"}, {"name": "language", "value": "cpython3"}, {"name": "package", "value": "tests.method_get.test_user"}]}