{"name": "test_list_page_ignored[foo]", "status": "passed", "description": "\n        Page values of zero, None and string are substituted with 1.\n        ", "attachments": [{"name": "< GET /api/unknown?page=foo HTTP/1.1\r\n< Host: reqres.in\r\n< User-Agent: Mozilla/5.0\r\n< Accept-Encoding: gzip, deflate\r\n< Accept: text/plain\r\n< Connection: keep-alive\r\n< Content-type: application/json\r\n< \r\n\r\n> HTTP/1.1 200 OK\r\n> Date: Sun, 05 Aug 2018 14:22:30 GMT\r\n> Content-Type: application/json; charset=utf-8\r\n> Transfer-Encoding: chunked\r\n> Connection: keep-alive\r\n> Set-Cookie: __cfduid=d3e4cfadfe8ecb303ecfa0a4eb1d7cd091533478950; expires=Mon, 05-Aug-19 14:22:30 GMT; path=/; domain=.reqres.in; HttpOnly\r\n> X-Powered-By: Express\r\n> Access-Control-Allow-Origin: *\r\n> ETag: W/\"138-JxfoRpyrgR+3MwPzWk39icdKPEA\"\r\n> Expect-CT: max-age=604800, report-uri=\"https://report-uri.cloudflare.com/cdn-cgi/beacon/expect-ct\"\r\n> Server: cloudflare\r\n> CF-RAY: 4459ea8d8ebabef3-FRA\r\n> Content-Encoding: gzip\r\n> \r\n{\"page\":1,\"per_page\":3,\"total\":12,\"total_pages\":4,\"data\":[{\"id\":1,\"name\":\"cerulean\",\"year\":2000,\"color\":\"#98B2D1\",\"pantone_value\":\"15-4020\"},{\"id\":2,\"name\":\"fuchsia rose\",\"year\":2001,\"color\":\"#C74375\",\"pantone_value\":\"17-2031\"},{\"id\":3,\"name\":\"true red\",\"year\":2002,\"color\":\"#BF1932\",\"pantone_value\":\"19-1664\"}]}", "source": "17616496-3bdd-4c36-bdd8-578fe500ca9d-attachment.attach"}], "parameters": [{"name": "page", "value": "'foo'"}], "start": 1533478949750, "stop": 1533478950356, "uuid": "0dbaf4e1-f123-4f16-b1f5-81a83248b6ff", "historyId": "a467c2a5523d4e5723c8afdd7538fc9d", "fullName": "tests.method_get.test_resource.TestGetResource#test_list_page_ignored[foo]", "labels": [{"name": "severity", "value": "normal"}, {"name": "host", "value": "asus-UX32LN"}, {"name": "thread", "value": "9694-MainThread"}, {"name": "framework", "value": "pytest"}, {"name": "language", "value": "cpython3"}, {"name": "package", "value": "tests.method_get.test_resource"}]}