{"name": "test_list_not_found[5]", "status": "passed", "description": "\n        The value is above valid boundary value.\n        ", "attachments": [{"name": "< GET /api/unknown?page=5 HTTP/1.1\r\n< Host: reqres.in\r\n< User-Agent: Mozilla/5.0\r\n< Accept-Encoding: gzip, deflate\r\n< Accept: text/plain\r\n< Connection: keep-alive\r\n< Content-type: application/json\r\n< \r\n\r\n> HTTP/1.1 200 OK\r\n> Date: Sun, 05 Aug 2018 14:20:40 GMT\r\n> Content-Type: application/json; charset=utf-8\r\n> Transfer-Encoding: chunked\r\n> Connection: keep-alive\r\n> Set-Cookie: __cfduid=ddd15c33a956ad92635ee81630583ad271533478840; expires=Mon, 05-Aug-19 14:20:40 GMT; path=/; domain=.reqres.in; HttpOnly\r\n> X-Powered-By: Express\r\n> Access-Control-Allow-Origin: *\r\n> ETag: W/\"3c-IltKQk35sTzQkL/yv5nUo7521gw\"\r\n> Expect-CT: max-age=604800, report-uri=\"https://report-uri.cloudflare.com/cdn-cgi/beacon/expect-ct\"\r\n> Server: cloudflare\r\n> CF-RAY: 4459e7e17f8326ae-FRA\r\n> Content-Encoding: gzip\r\n> \r\n{\"page\":5,\"per_page\":3,\"total\":12,\"total_pages\":4,\"data\":[]}", "source": "201404f4-be73-4a7c-8da1-0741d6407da0-attachment.attach"}], "parameters": [{"name": "page", "value": "5"}], "start": 1533478840296, "stop": 1533478840919, "uuid": "50829761-c4d2-42c0-84ef-42f073de2e67", "historyId": "61f06c9ba379e0db301c238acd30ea52", "fullName": "tests.method_get.test_resource.TestGetResource#test_list_not_found[5]", "labels": [{"name": "severity", "value": "minor"}, {"name": "host", "value": "asus-UX32LN"}, {"name": "thread", "value": "9393-MainThread"}, {"name": "framework", "value": "pytest"}, {"name": "language", "value": "cpython3"}, {"name": "package", "value": "tests.method_get.test_resource"}]}