{"name": "test_list_found[4]", "status": "passed", "description": "\n        Valid page values.\n        ", "attachments": [{"name": "< GET /api/users?page=4 HTTP/1.1\r\n< Host: reqres.in\r\n< User-Agent: Mozilla/5.0\r\n< Accept-Encoding: gzip, deflate\r\n< Accept: text/plain\r\n< Connection: keep-alive\r\n< Content-type: application/json\r\n< \r\n\r\n> HTTP/1.1 200 OK\r\n> Date: Sun, 05 Aug 2018 14:20:46 GMT\r\n> Content-Type: application/json; charset=utf-8\r\n> Transfer-Encoding: chunked\r\n> Connection: keep-alive\r\n> Set-Cookie: __cfduid=d872293c1a020b9a61bbe4f224c5383661533478846; expires=Mon, 05-Aug-19 14:20:46 GMT; path=/; domain=.reqres.in; HttpOnly\r\n> X-Powered-By: Express\r\n> Access-Control-Allow-Origin: *\r\n> ETag: W/\"1c1-yqzQgXEdaMJAJ5JBZwFrqq9ZZqs\"\r\n> Expect-CT: max-age=604800, report-uri=\"https://report-uri.cloudflare.com/cdn-cgi/beacon/expect-ct\"\r\n> Server: cloudflare\r\n> CF-RAY: 4459e8054c8ebf02-FRA\r\n> Content-Encoding: gzip\r\n> \r\n{\"page\":4,\"per_page\":3,\"total\":12,\"total_pages\":4,\"data\":[{\"id\":10,\"first_name\":\"Byron\",\"last_name\":\"Fields\",\"avatar\":\"https://s3.amazonaws.com/uifaces/faces/twitter/russoedu/128.jpg\"},{\"id\":11,\"first_name\":\"George\",\"last_name\":\"Edwards\",\"avatar\":\"https://s3.amazonaws.com/uifaces/faces/twitter/mrmoiree/128.jpg\"},{\"id\":12,\"first_name\":\"Rachel\",\"last_name\":\"Howell\",\"avatar\":\"https://s3.amazonaws.com/uifaces/faces/twitter/hebertialmeida/128.jpg\"}]}", "source": "7c44dfc7-f4b3-48b2-ac1a-d23273fc1d49-attachment.attach"}], "parameters": [{"name": "page", "value": "4"}], "start": 1533478846022, "stop": 1533478846652, "uuid": "209fad57-01c5-4243-9c7d-48b37bde8197", "historyId": "361ae6790fdaad7e44caff1d218415ac", "fullName": "tests.method_get.test_user.TestGetUser#test_list_found[4]", "labels": [{"name": "severity", "value": "critical"}, {"name": "host", "value": "asus-UX32LN"}, {"name": "thread", "value": "9393-MainThread"}, {"name": "framework", "value": "pytest"}, {"name": "language", "value": "cpython3"}, {"name": "package", "value": "tests.method_get.test_user"}]}