{"name": "test_list_page_ignored[0]", "status": "passed", "description": "\n        Page values of zero, None and string are substituted with 1.\n        ", "attachments": [{"name": "< GET /api/unknown?page=0 HTTP/1.1\r\n< Host: reqres.in\r\n< User-Agent: Mozilla/5.0\r\n< Accept-Encoding: gzip, deflate\r\n< Accept: text/plain\r\n< Connection: keep-alive\r\n< Content-type: application/json\r\n< \r\n\r\n> HTTP/1.1 200 OK\r\n> Date: Sun, 05 Aug 2018 14:45:25 GMT\r\n> Content-Type: application/json; charset=utf-8\r\n> Transfer-Encoding: chunked\r\n> Connection: keep-alive\r\n> Set-Cookie: __cfduid=dd663ffc82825e27903c1cf3de3cd70171533480325; expires=Mon, 05-Aug-19 14:45:25 GMT; path=/; domain=.reqres.in; HttpOnly\r\n> X-Powered-By: Express\r\n> Access-Control-Allow-Origin: *\r\n> ETag: W/\"138-JxfoRpyrgR+3MwPzWk39icdKPEA\"\r\n> Expect-CT: max-age=604800, report-uri=\"https://report-uri.cloudflare.com/cdn-cgi/beacon/expect-ct\"\r\n> Server: cloudflare\r\n> CF-RAY: 445a0c218a43bf02-FRA\r\n> Content-Encoding: gzip\r\n> \r\n{\"page\":1,\"per_page\":3,\"total\":12,\"total_pages\":4,\"data\":[{\"id\":1,\"name\":\"cerulean\",\"year\":2000,\"color\":\"#98B2D1\",\"pantone_value\":\"15-4020\"},{\"id\":2,\"name\":\"fuchsia rose\",\"year\":2001,\"color\":\"#C74375\",\"pantone_value\":\"17-2031\"},{\"id\":3,\"name\":\"true red\",\"year\":2002,\"color\":\"#BF1932\",\"pantone_value\":\"19-1664\"}]}", "source": "aa749248-d8de-4d3b-8e19-1e2e293e77a8-attachment.attach"}], "parameters": [{"name": "page", "value": "0"}], "start": 1533480325094, "stop": 1533480325725, "uuid": "e1965dab-a9c4-4d42-bec8-d04b5e163d35", "historyId": "49125fccbaa9edcfd66f7d241c80cca0", "fullName": "tests.method_get.test_resource.TestGetResource#test_list_page_ignored[0]", "labels": [{"name": "severity", "value": "normal"}, {"name": "host", "value": "asus-UX32LN"}, {"name": "thread", "value": "11097-MainThread"}, {"name": "framework", "value": "pytest"}, {"name": "language", "value": "cpython3"}, {"name": "package", "value": "tests.method_get.test_resource"}]}