{"name": "test_list_found[4]", "status": "passed", "description": "\n        Valid page values.\n        ", "attachments": [{"name": "< GET /api/unknown?page=4 HTTP/1.1\r\n< Host: reqres.in\r\n< User-Agent: Mozilla/5.0\r\n< Accept-Encoding: gzip, deflate\r\n< Accept: text/plain\r\n< Connection: keep-alive\r\n< Content-type: application/json\r\n< \r\n\r\n> HTTP/1.1 200 OK\r\n> Date: Sun, 05 Aug 2018 14:45:24 GMT\r\n> Content-Type: application/json; charset=utf-8\r\n> Transfer-Encoding: chunked\r\n> Connection: keep-alive\r\n> Set-Cookie: __cfduid=dc4c1cb51edddd828e6ddbfde95d7d4611533480324; expires=Mon, 05-Aug-19 14:45:24 GMT; path=/; domain=.reqres.in; HttpOnly\r\n> X-Powered-By: Express\r\n> Access-Control-Allow-Origin: *\r\n> ETag: W/\"139-QRIL7I0QC+eJ5oRUaKEUooG+zQI\"\r\n> Expect-CT: max-age=604800, report-uri=\"https://report-uri.cloudflare.com/cdn-cgi/beacon/expect-ct\"\r\n> Server: cloudflare\r\n> CF-RAY: 445a0c19aa25bf25-FRA\r\n> Content-Encoding: gzip\r\n> \r\n{\"page\":4,\"per_page\":3,\"total\":12,\"total_pages\":4,\"data\":[{\"id\":10,\"name\":\"mimosa\",\"year\":2009,\"color\":\"#F0C05A\",\"pantone_value\":\"14-0848\"},{\"id\":11,\"name\":\"turquoise\",\"year\":2010,\"color\":\"#45B5AA\",\"pantone_value\":\"15-5519\"},{\"id\":12,\"name\":\"honeysuckle\",\"year\":2011,\"color\":\"#D94F70\",\"pantone_value\":\"18-2120\"}]}", "source": "0e257cc6-2392-4207-bf90-bc565156fc3a-attachment.attach"}], "parameters": [{"name": "page", "value": "4"}], "start": 1533480323836, "stop": 1533480324454, "uuid": "9ea88c86-0b65-4514-b849-26db2c8fac86", "historyId": "ef948e5c605f80bdac130697b0c591c6", "fullName": "tests.method_get.test_resource.TestGetResource#test_list_found[4]", "labels": [{"name": "severity", "value": "critical"}, {"name": "host", "value": "asus-UX32LN"}, {"name": "thread", "value": "11097-MainThread"}, {"name": "framework", "value": "pytest"}, {"name": "language", "value": "cpython3"}, {"name": "package", "value": "tests.method_get.test_resource"}]}