{"name": "test_list_not_found[5]", "status": "passed", "description": "\n        The value is above valid boundary value.\n        ", "attachments": [{"name": "< GET /api/users?page=5 HTTP/1.1\r\n< Host: reqres.in\r\n< User-Agent: Mozilla/5.0\r\n< Accept-Encoding: gzip, deflate\r\n< Accept: text/plain\r\n< Connection: keep-alive\r\n< Content-type: application/json\r\n< \r\n\r\n> HTTP/1.1 200 OK\r\n> Date: Sun, 05 Aug 2018 14:20:48 GMT\r\n> Content-Type: application/json; charset=utf-8\r\n> Transfer-Encoding: chunked\r\n> Connection: keep-alive\r\n> Set-Cookie: __cfduid=d7d66ef0a39bb80c50e25ef7e43d525411533478848; expires=Mon, 05-Aug-19 14:20:48 GMT; path=/; domain=.reqres.in; HttpOnly\r\n> X-Powered-By: Express\r\n> Access-Control-Allow-Origin: *\r\n> ETag: W/\"3c-IltKQk35sTzQkL/yv5nUo7521gw\"\r\n> Expect-CT: max-age=604800, report-uri=\"https://report-uri.cloudflare.com/cdn-cgi/beacon/expect-ct\"\r\n> Server: cloudflare\r\n> CF-RAY: 4459e8130af5bf1b-FRA\r\n> Content-Encoding: gzip\r\n> \r\n{\"page\":5,\"per_page\":3,\"total\":12,\"total_pages\":4,\"data\":[]}", "source": "6814d79f-65ee-4dff-8b45-140c597f66b0-attachment.attach"}], "parameters": [{"name": "page", "value": "5"}], "start": 1533478848206, "stop": 1533478848684, "uuid": "ee12b793-9e86-4be0-aa36-af6ec46b6894", "historyId": "1bf538f3e1a7dd5f8afdf9336a240516", "fullName": "tests.method_get.test_user.TestGetUser#test_list_not_found[5]", "labels": [{"name": "severity", "value": "normal"}, {"name": "host", "value": "asus-UX32LN"}, {"name": "thread", "value": "9393-MainThread"}, {"name": "framework", "value": "pytest"}, {"name": "language", "value": "cpython3"}, {"name": "package", "value": "tests.method_get.test_user"}]}