{"name": "test_list_page_without_page_param", "status": "passed", "description": "\n        If you don't pass page param, the system implicitly assign page = 1.\n        ", "attachments": [{"name": "< GET /api/users HTTP/1.1\r\n< Host: reqres.in\r\n< User-Agent: Mozilla/5.0\r\n< Accept-Encoding: gzip, deflate\r\n< Accept: text/plain\r\n< Connection: keep-alive\r\n< Content-type: application/json\r\n< \r\n\r\n> HTTP/1.1 200 OK\r\n> Date: Sun, 05 Aug 2018 14:22:37 GMT\r\n> Content-Type: application/json; charset=utf-8\r\n> Transfer-Encoding: chunked\r\n> Connection: keep-alive\r\n> Set-Cookie: __cfduid=d47bbd4e4c596050dc6925fece97ab85d1533478956; expires=Mon, 05-Aug-19 14:22:36 GMT; path=/; domain=.reqres.in; HttpOnly\r\n> X-Powered-By: Express\r\n> Access-Control-Allow-Origin: *\r\n> ETag: W/\"1bb-D+c3sZ5g5u/nmLPQRl1uVo2heAo\"\r\n> Expect-CT: max-age=604800, report-uri=\"https://report-uri.cloudflare.com/cdn-cgi/beacon/expect-ct\"\r\n> Server: cloudflare\r\n> CF-RAY: 4459eab8dc1297e0-FRA\r\n> Content-Encoding: gzip\r\n> \r\n{\"page\":1,\"per_page\":3,\"total\":12,\"total_pages\":4,\"data\":[{\"id\":1,\"first_name\":\"George\",\"last_name\":\"Bluth\",\"avatar\":\"https://s3.amazonaws.com/uifaces/faces/twitter/calebogden/128.jpg\"},{\"id\":2,\"first_name\":\"Janet\",\"last_name\":\"Weaver\",\"avatar\":\"https://s3.amazonaws.com/uifaces/faces/twitter/josephstein/128.jpg\"},{\"id\":3,\"first_name\":\"Emma\",\"last_name\":\"Wong\",\"avatar\":\"https://s3.amazonaws.com/uifaces/faces/twitter/olegpogodaev/128.jpg\"}]}", "source": "f50e7a1d-6ba8-423d-a033-b0275db667af-attachment.attach"}], "start": 1533478956680, "stop": 1533478957283, "uuid": "b6ccccf1-dc59-4fa0-870e-0dc8213bfd4f", "historyId": "d2cf324797ff5dd20d33c920a2b3fb87", "fullName": "tests.method_get.test_user.TestGetUser#test_list_page_without_page_param", "labels": [{"name": "severity", "value": "critical"}, {"name": "host", "value": "asus-UX32LN"}, {"name": "thread", "value": "9694-MainThread"}, {"name": "framework", "value": "pytest"}, {"name": "language", "value": "cpython3"}, {"name": "package", "value": "tests.method_get.test_user"}]}