{"name": "test_list_not_found[5]", "status": "passed", "description": "\n        The value is above valid boundary value.\n        ", "attachments": [{"name": "< GET /api/users?page=5 HTTP/1.1\r\n< Host: reqres.in\r\n< User-Agent: Mozilla/5.0\r\n< Accept-Encoding: gzip, deflate\r\n< Accept: text/plain\r\n< Connection: keep-alive\r\n< Content-type: application/json\r\n< \r\n\r\n> HTTP/1.1 200 OK\r\n> Date: Sun, 05 Aug 2018 14:22:39 GMT\r\n> Content-Type: application/json; charset=utf-8\r\n> Transfer-Encoding: chunked\r\n> Connection: keep-alive\r\n> Set-Cookie: __cfduid=dd497c594fb26f86c74098a54d543cb1d1533478958; expires=Mon, 05-Aug-19 14:22:38 GMT; path=/; domain=.reqres.in; HttpOnly\r\n> X-Powered-By: Express\r\n> Access-Control-Allow-Origin: *\r\n> ETag: W/\"3c-IltKQk35sTzQkL/yv5nUo7521gw\"\r\n> Expect-CT: max-age=604800, report-uri=\"https://report-uri.cloudflare.com/cdn-cgi/beacon/expect-ct\"\r\n> Server: cloudflare\r\n> CF-RAY: 4459eac47ba3bf2a-FRA\r\n> Content-Encoding: gzip\r\n> \r\n{\"page\":5,\"per_page\":3,\"total\":12,\"total_pages\":4,\"data\":[]}", "source": "ab5c53db-f0b3-4d77-ac19-c624f390fe48-attachment.attach"}], "parameters": [{"name": "page", "value": "5"}], "start": 1533478958533, "stop": 1533478959147, "uuid": "24952935-d725-4f67-a920-15daaee2830b", "historyId": "1bf538f3e1a7dd5f8afdf9336a240516", "fullName": "tests.method_get.test_user.TestGetUser#test_list_not_found[5]", "labels": [{"name": "severity", "value": "normal"}, {"name": "host", "value": "asus-UX32LN"}, {"name": "thread", "value": "9694-MainThread"}, {"name": "framework", "value": "pytest"}, {"name": "language", "value": "cpython3"}, {"name": "package", "value": "tests.method_get.test_user"}]}