{
  "uid" : "2a1563411ad55783",
  "name" : "test_list_not_found[5]",
  "fullName" : "tests.method_get.test_resource.TestGetResource#test_list_not_found[5]",
  "historyId" : "61f06c9ba379e0db301c238acd30ea52",
  "time" : {
    "start" : 1533480326365,
    "stop" : 1533480327014,
    "duration" : 649
  },
  "description" : "\n        The value is above valid boundary value.\n        ",
  "descriptionHtml" : "<pre><code>    The value is above valid boundary value.\n</code></pre>\n",
  "status" : "passed",
  "flaky" : false,
  "beforeStages" : [ {
    "name" : "base_request",
    "time" : {
      "start" : 1533480326364,
      "stop" : 1533480326364,
      "duration" : 0
    },
    "status" : "passed",
    "steps" : [ ],
    "attachments" : [ ],
    "parameters" : [ ],
    "stepsCount" : 0,
    "attachmentsCount" : 0,
    "shouldDisplayMessage" : false,
    "hasContent" : false
  } ],
  "testStage" : {
    "description" : "\n        The value is above valid boundary value.\n        ",
    "status" : "passed",
    "steps" : [ ],
    "attachments" : [ {
      "uid" : "d37e41b82e1e6e3",
      "name" : "< GET /api/unknown?page=5 HTTP/1.1\r\n< Host: reqres.in\r\n< User-Agent: Mozilla/5.0\r\n< Accept-Encoding: gzip, deflate\r\n< Accept: text/plain\r\n< Connection: keep-alive\r\n< Content-type: application/json\r\n< \r\n\r\n> HTTP/1.1 200 OK\r\n> Date: Sun, 05 Aug 2018 14:45:26 GMT\r\n> Content-Type: application/json; charset=utf-8\r\n> Transfer-Encoding: chunked\r\n> Connection: keep-alive\r\n> Set-Cookie: __cfduid=d401fdc330d26573310168a6d14f94c4d1533480326; expires=Mon, 05-Aug-19 14:45:26 GMT; path=/; domain=.reqres.in; HttpOnly\r\n> X-Powered-By: Express\r\n> Access-Control-Allow-Origin: *\r\n> ETag: W/\"3c-IltKQk35sTzQkL/yv5nUo7521gw\"\r\n> Expect-CT: max-age=604800, report-uri=\"https://report-uri.cloudflare.com/cdn-cgi/beacon/expect-ct\"\r\n> Server: cloudflare\r\n> CF-RAY: 445a0c29795cbf20-FRA\r\n> Content-Encoding: gzip\r\n> \r\n{\"page\":5,\"per_page\":3,\"total\":12,\"total_pages\":4,\"data\":[]}",
      "source" : "d37e41b82e1e6e3.attach",
      "type" : "text/plain",
      "size" : 22
    } ],
    "parameters" : [ ],
    "stepsCount" : 0,
    "attachmentsCount" : 1,
    "shouldDisplayMessage" : false,
    "hasContent" : true
  },
  "afterStages" : [ ],
  "labels" : [ {
    "name" : "severity",
    "value" : "normal"
  }, {
    "name" : "host",
    "value" : "asus-UX32LN"
  }, {
    "name" : "thread",
    "value" : "11097-MainThread"
  }, {
    "name" : "framework",
    "value" : "pytest"
  }, {
    "name" : "language",
    "value" : "cpython3"
  }, {
    "name" : "package",
    "value" : "tests.method_get.test_resource"
  }, {
    "name" : "resultFormat",
    "value" : "allure2"
  } ],
  "parameters" : [ {
    "name" : "page",
    "value" : "5"
  } ],
  "links" : [ ],
  "hidden" : false,
  "retry" : false,
  "extra" : {
    "severity" : "normal",
    "retries" : [ {
      "uid" : "c521f3e6000d09b0",
      "status" : "passed",
      "time" : {
        "start" : 1533478950361,
        "stop" : 1533478951003,
        "duration" : 642
      }
    }, {
      "uid" : "9845d5ffe6ad56d7",
      "status" : "passed",
      "time" : {
        "start" : 1533478840296,
        "stop" : 1533478840919,
        "duration" : 623
      }
    } ],
    "categories" : [ ],
    "tags" : [ ]
  },
  "source" : "2a1563411ad55783.json",
  "parameterValues" : [ "5" ]
}