{
  "uid" : "2f03954541832df",
  "name" : "test_list_page_without_page_param",
  "fullName" : "tests.method_get.test_user.TestGetUser#test_list_page_without_page_param",
  "historyId" : "d2cf324797ff5dd20d33c920a2b3fb87",
  "time" : {
    "start" : 1533480333077,
    "stop" : 1533480333681,
    "duration" : 604
  },
  "description" : "\n        If you don't pass page param, the system implicitly assign page = 1.\n        ",
  "descriptionHtml" : "<pre><code>    If you don't pass page param, the system implicitly assign page = 1.\n</code></pre>\n",
  "status" : "passed",
  "flaky" : false,
  "beforeStages" : [ {
    "name" : "base_request",
    "time" : {
      "start" : 1533480333076,
      "stop" : 1533480333076,
      "duration" : 0
    },
    "status" : "passed",
    "steps" : [ ],
    "attachments" : [ ],
    "parameters" : [ ],
    "stepsCount" : 0,
    "attachmentsCount" : 0,
    "shouldDisplayMessage" : false,
    "hasContent" : false
  } ],
  "testStage" : {
    "description" : "\n        If you don't pass page param, the system implicitly assign page = 1.\n        ",
    "status" : "passed",
    "steps" : [ ],
    "attachments" : [ {
      "uid" : "a76e9f852a47fbfe",
      "name" : "< GET /api/users HTTP/1.1\r\n< Host: reqres.in\r\n< User-Agent: Mozilla/5.0\r\n< Accept-Encoding: gzip, deflate\r\n< Accept: text/plain\r\n< Connection: keep-alive\r\n< Content-type: application/json\r\n< \r\n\r\n> HTTP/1.1 200 OK\r\n> Date: Sun, 05 Aug 2018 14:45:33 GMT\r\n> Content-Type: application/json; charset=utf-8\r\n> Transfer-Encoding: chunked\r\n> Connection: keep-alive\r\n> Set-Cookie: __cfduid=d8d5ee2201e251d33d20ddc1eed71ac5d1533480333; expires=Mon, 05-Aug-19 14:45:33 GMT; path=/; domain=.reqres.in; HttpOnly\r\n> X-Powered-By: Express\r\n> Access-Control-Allow-Origin: *\r\n> ETag: W/\"1bb-D+c3sZ5g5u/nmLPQRl1uVo2heAo\"\r\n> Expect-CT: max-age=604800, report-uri=\"https://report-uri.cloudflare.com/cdn-cgi/beacon/expect-ct\"\r\n> Server: cloudflare\r\n> CF-RAY: 445a0c535ad8bef3-FRA\r\n> Content-Encoding: gzip\r\n> \r\n{\"page\":1,\"per_page\":3,\"total\":12,\"total_pages\":4,\"data\":[{\"id\":1,\"first_name\":\"George\",\"last_name\":\"Bluth\",\"avatar\":\"https://s3.amazonaws.com/uifaces/faces/twitter/calebogden/128.jpg\"},{\"id\":2,\"first_name\":\"Janet\",\"last_name\":\"Weaver\",\"avatar\":\"https://s3.amazonaws.com/uifaces/faces/twitter/josephstein/128.jpg\"},{\"id\":3,\"first_name\":\"Emma\",\"last_name\":\"Wong\",\"avatar\":\"https://s3.amazonaws.com/uifaces/faces/twitter/olegpogodaev/128.jpg\"}]}",
      "source" : "a76e9f852a47fbfe.attach",
      "type" : "text/plain",
      "size" : 20
    } ],
    "parameters" : [ ],
    "stepsCount" : 0,
    "attachmentsCount" : 1,
    "shouldDisplayMessage" : false,
    "hasContent" : true
  },
  "afterStages" : [ ],
  "labels" : [ {
    "name" : "severity",
    "value" : "critical"
  }, {
    "name" : "host",
    "value" : "asus-UX32LN"
  }, {
    "name" : "thread",
    "value" : "11097-MainThread"
  }, {
    "name" : "framework",
    "value" : "pytest"
  }, {
    "name" : "language",
    "value" : "cpython3"
  }, {
    "name" : "package",
    "value" : "tests.method_get.test_user"
  }, {
    "name" : "resultFormat",
    "value" : "allure2"
  } ],
  "parameters" : [ ],
  "links" : [ ],
  "hidden" : false,
  "retry" : false,
  "extra" : {
    "severity" : "critical",
    "retries" : [ {
      "uid" : "4aed2e9bb009d1f0",
      "status" : "passed",
      "time" : {
        "start" : 1533478956680,
        "stop" : 1533478957283,
        "duration" : 603
      }
    }, {
      "uid" : "10598b4af485ac2a",
      "status" : "passed",
      "time" : {
        "start" : 1533478846656,
        "stop" : 1533478847266,
        "duration" : 610
      }
    } ],
    "categories" : [ ],
    "tags" : [ ]
  },
  "source" : "2f03954541832df.json",
  "parameterValues" : [ ]
}