{
  "uid" : "38f2920c1f6d6543",
  "name" : "test_list_page_ignored[foo]",
  "fullName" : "tests.method_get.test_resource.TestGetResource#test_list_page_ignored[foo]",
  "historyId" : "a467c2a5523d4e5723c8afdd7538fc9d",
  "time" : {
    "start" : 1533478839656,
    "stop" : 1533478840290,
    "duration" : 634
  },
  "description" : "\n        Page values of zero, None and string are substituted with 1.\n        ",
  "descriptionHtml" : "<pre><code>    Page values of zero, None and string are substituted with 1.\n</code></pre>\n",
  "status" : "passed",
  "flaky" : false,
  "beforeStages" : [ {
    "name" : "base_request",
    "time" : {
      "start" : 1533478839655,
      "stop" : 1533478839655,
      "duration" : 0
    },
    "status" : "passed",
    "steps" : [ ],
    "attachments" : [ ],
    "parameters" : [ ],
    "stepsCount" : 0,
    "attachmentsCount" : 0,
    "shouldDisplayMessage" : false,
    "hasContent" : false
  } ],
  "testStage" : {
    "description" : "\n        Page values of zero, None and string are substituted with 1.\n        ",
    "status" : "passed",
    "steps" : [ ],
    "attachments" : [ {
      "uid" : "3acf78549b27fe9f",
      "name" : "< GET /api/unknown?page=foo HTTP/1.1\r\n< Host: reqres.in\r\n< User-Agent: Mozilla/5.0\r\n< Accept-Encoding: gzip, deflate\r\n< Accept: text/plain\r\n< Connection: keep-alive\r\n< Content-type: application/json\r\n< \r\n\r\n> HTTP/1.1 200 OK\r\n> Date: Sun, 05 Aug 2018 14:20:40 GMT\r\n> Content-Type: application/json; charset=utf-8\r\n> Transfer-Encoding: chunked\r\n> Connection: keep-alive\r\n> Set-Cookie: __cfduid=d0ea3ce999831b6aded4db9ba622a38d81533478839; expires=Mon, 05-Aug-19 14:20:39 GMT; path=/; domain=.reqres.in; HttpOnly\r\n> X-Powered-By: Express\r\n> Access-Control-Allow-Origin: *\r\n> ETag: W/\"138-JxfoRpyrgR+3MwPzWk39icdKPEA\"\r\n> Expect-CT: max-age=604800, report-uri=\"https://report-uri.cloudflare.com/cdn-cgi/beacon/expect-ct\"\r\n> Server: cloudflare\r\n> CF-RAY: 4459e7dd8f85bef3-FRA\r\n> Content-Encoding: gzip\r\n> \r\n{\"page\":1,\"per_page\":3,\"total\":12,\"total_pages\":4,\"data\":[{\"id\":1,\"name\":\"cerulean\",\"year\":2000,\"color\":\"#98B2D1\",\"pantone_value\":\"15-4020\"},{\"id\":2,\"name\":\"fuchsia rose\",\"year\":2001,\"color\":\"#C74375\",\"pantone_value\":\"17-2031\"},{\"id\":3,\"name\":\"true red\",\"year\":2002,\"color\":\"#BF1932\",\"pantone_value\":\"19-1664\"}]}",
      "source" : "3acf78549b27fe9f.attach",
      "type" : "text/plain",
      "size" : 22
    } ],
    "parameters" : [ ],
    "stepsCount" : 0,
    "attachmentsCount" : 1,
    "shouldDisplayMessage" : false,
    "hasContent" : true
  },
  "afterStages" : [ ],
  "labels" : [ {
    "name" : "severity",
    "value" : "normal"
  }, {
    "name" : "host",
    "value" : "asus-UX32LN"
  }, {
    "name" : "thread",
    "value" : "9393-MainThread"
  }, {
    "name" : "framework",
    "value" : "pytest"
  }, {
    "name" : "language",
    "value" : "cpython3"
  }, {
    "name" : "package",
    "value" : "tests.method_get.test_resource"
  }, {
    "name" : "resultFormat",
    "value" : "allure2"
  } ],
  "parameters" : [ {
    "name" : "page",
    "value" : "'foo'"
  } ],
  "links" : [ ],
  "hidden" : true,
  "retry" : true,
  "extra" : {
    "categories" : [ ],
    "tags" : [ ]
  },
  "source" : "38f2920c1f6d6543.json",
  "parameterValues" : [ "'foo'" ]
}