{
  "uid" : "70cac127039952fc",
  "name" : "test_list_page_without_page_param",
  "fullName" : "tests.method_get.test_resource.TestGetResource#test_list_page_without_page_param",
  "historyId" : "a013a979b2df31805864b489e77ccd3c",
  "time" : {
    "start" : 1533478948220,
    "stop" : 1533478949126,
    "duration" : 906
  },
  "description" : "\n        If you don't pass page param, the system implicitly assign page = 1.\n        ",
  "descriptionHtml" : "<pre><code>    If you don't pass page param, the system implicitly assign page = 1.\n</code></pre>\n",
  "status" : "passed",
  "flaky" : false,
  "beforeStages" : [ {
    "name" : "base_request",
    "time" : {
      "start" : 1533478948219,
      "stop" : 1533478948219,
      "duration" : 0
    },
    "status" : "passed",
    "steps" : [ ],
    "attachments" : [ ],
    "parameters" : [ ],
    "stepsCount" : 0,
    "attachmentsCount" : 0,
    "shouldDisplayMessage" : false,
    "hasContent" : false
  } ],
  "testStage" : {
    "description" : "\n        If you don't pass page param, the system implicitly assign page = 1.\n        ",
    "status" : "passed",
    "steps" : [ ],
    "attachments" : [ {
      "uid" : "872b281efcf0712c",
      "name" : "< GET /api/unknown HTTP/1.1\r\n< Host: reqres.in\r\n< User-Agent: Mozilla/5.0\r\n< Accept-Encoding: gzip, deflate\r\n< Accept: text/plain\r\n< Connection: keep-alive\r\n< Content-type: application/json\r\n< \r\n\r\n> HTTP/1.1 200 OK\r\n> Date: Sun, 05 Aug 2018 14:22:29 GMT\r\n> Content-Type: application/json; charset=utf-8\r\n> Transfer-Encoding: chunked\r\n> Connection: keep-alive\r\n> Set-Cookie: __cfduid=d555e1414988963f04a707ab122c7d1081533478948; expires=Mon, 05-Aug-19 14:22:28 GMT; path=/; domain=.reqres.in; HttpOnly\r\n> X-Powered-By: Express\r\n> Access-Control-Allow-Origin: *\r\n> ETag: W/\"138-JxfoRpyrgR+3MwPzWk39icdKPEA\"\r\n> Expect-CT: max-age=604800, report-uri=\"https://report-uri.cloudflare.com/cdn-cgi/beacon/expect-ct\"\r\n> Server: cloudflare\r\n> CF-RAY: 4459ea85ececbf02-FRA\r\n> Content-Encoding: gzip\r\n> \r\n{\"page\":1,\"per_page\":3,\"total\":12,\"total_pages\":4,\"data\":[{\"id\":1,\"name\":\"cerulean\",\"year\":2000,\"color\":\"#98B2D1\",\"pantone_value\":\"15-4020\"},{\"id\":2,\"name\":\"fuchsia rose\",\"year\":2001,\"color\":\"#C74375\",\"pantone_value\":\"17-2031\"},{\"id\":3,\"name\":\"true red\",\"year\":2002,\"color\":\"#BF1932\",\"pantone_value\":\"19-1664\"}]}",
      "source" : "872b281efcf0712c.attach",
      "type" : "text/plain",
      "size" : 22
    } ],
    "parameters" : [ ],
    "stepsCount" : 0,
    "attachmentsCount" : 1,
    "shouldDisplayMessage" : false,
    "hasContent" : true
  },
  "afterStages" : [ ],
  "labels" : [ {
    "name" : "severity",
    "value" : "critical"
  }, {
    "name" : "host",
    "value" : "asus-UX32LN"
  }, {
    "name" : "thread",
    "value" : "9694-MainThread"
  }, {
    "name" : "framework",
    "value" : "pytest"
  }, {
    "name" : "language",
    "value" : "cpython3"
  }, {
    "name" : "package",
    "value" : "tests.method_get.test_resource"
  }, {
    "name" : "resultFormat",
    "value" : "allure2"
  } ],
  "parameters" : [ ],
  "links" : [ ],
  "hidden" : true,
  "retry" : true,
  "extra" : {
    "categories" : [ ],
    "tags" : [ ]
  },
  "source" : "70cac127039952fc.json",
  "parameterValues" : [ ]
}