{
  "uid" : "a2f4cb8858c41beb",
  "name" : "test_list_found[4]",
  "fullName" : "tests.method_get.test_user.TestGetUser#test_list_found[4]",
  "historyId" : "361ae6790fdaad7e44caff1d218415ac",
  "time" : {
    "start" : 1533480332442,
    "stop" : 1533480333074,
    "duration" : 632
  },
  "description" : "\n        Valid page values.\n        ",
  "descriptionHtml" : "<pre><code>    Valid page values.\n</code></pre>\n",
  "status" : "passed",
  "flaky" : false,
  "beforeStages" : [ {
    "name" : "base_request",
    "time" : {
      "start" : 1533480332441,
      "stop" : 1533480332441,
      "duration" : 0
    },
    "status" : "passed",
    "steps" : [ ],
    "attachments" : [ ],
    "parameters" : [ ],
    "stepsCount" : 0,
    "attachmentsCount" : 0,
    "shouldDisplayMessage" : false,
    "hasContent" : false
  } ],
  "testStage" : {
    "description" : "\n        Valid page values.\n        ",
    "status" : "passed",
    "steps" : [ ],
    "attachments" : [ {
      "uid" : "ddd708c62e19d9ee",
      "name" : "< GET /api/users?page=4 HTTP/1.1\r\n< Host: reqres.in\r\n< User-Agent: Mozilla/5.0\r\n< Accept-Encoding: gzip, deflate\r\n< Accept: text/plain\r\n< Connection: keep-alive\r\n< Content-type: application/json\r\n< \r\n\r\n> HTTP/1.1 200 OK\r\n> Date: Sun, 05 Aug 2018 14:45:33 GMT\r\n> Content-Type: application/json; charset=utf-8\r\n> Transfer-Encoding: chunked\r\n> Connection: keep-alive\r\n> Set-Cookie: __cfduid=d20887d9eff312f99549a9c0a9fa444a21533480332; expires=Mon, 05-Aug-19 14:45:32 GMT; path=/; domain=.reqres.in; HttpOnly\r\n> X-Powered-By: Express\r\n> Access-Control-Allow-Origin: *\r\n> ETag: W/\"1c1-yqzQgXEdaMJAJ5JBZwFrqq9ZZqs\"\r\n> Expect-CT: max-age=604800, report-uri=\"https://report-uri.cloudflare.com/cdn-cgi/beacon/expect-ct\"\r\n> Server: cloudflare\r\n> CF-RAY: 445a0c4f7dd5bf25-FRA\r\n> Content-Encoding: gzip\r\n> \r\n{\"page\":4,\"per_page\":3,\"total\":12,\"total_pages\":4,\"data\":[{\"id\":10,\"first_name\":\"Byron\",\"last_name\":\"Fields\",\"avatar\":\"https://s3.amazonaws.com/uifaces/faces/twitter/russoedu/128.jpg\"},{\"id\":11,\"first_name\":\"George\",\"last_name\":\"Edwards\",\"avatar\":\"https://s3.amazonaws.com/uifaces/faces/twitter/mrmoiree/128.jpg\"},{\"id\":12,\"first_name\":\"Rachel\",\"last_name\":\"Howell\",\"avatar\":\"https://s3.amazonaws.com/uifaces/faces/twitter/hebertialmeida/128.jpg\"}]}",
      "source" : "ddd708c62e19d9ee.attach",
      "type" : "text/plain",
      "size" : 20
    } ],
    "parameters" : [ ],
    "stepsCount" : 0,
    "attachmentsCount" : 1,
    "shouldDisplayMessage" : false,
    "hasContent" : true
  },
  "afterStages" : [ ],
  "labels" : [ {
    "name" : "severity",
    "value" : "critical"
  }, {
    "name" : "host",
    "value" : "asus-UX32LN"
  }, {
    "name" : "thread",
    "value" : "11097-MainThread"
  }, {
    "name" : "framework",
    "value" : "pytest"
  }, {
    "name" : "language",
    "value" : "cpython3"
  }, {
    "name" : "package",
    "value" : "tests.method_get.test_user"
  }, {
    "name" : "resultFormat",
    "value" : "allure2"
  } ],
  "parameters" : [ {
    "name" : "page",
    "value" : "4"
  } ],
  "links" : [ ],
  "hidden" : false,
  "retry" : false,
  "extra" : {
    "severity" : "critical",
    "retries" : [ {
      "uid" : "f6dc307c5ef746d",
      "status" : "passed",
      "time" : {
        "start" : 1533478956052,
        "stop" : 1533478956674,
        "duration" : 622
      }
    }, {
      "uid" : "68f395fd176995b4",
      "status" : "passed",
      "time" : {
        "start" : 1533478846022,
        "stop" : 1533478846652,
        "duration" : 630
      }
    } ],
    "categories" : [ ],
    "tags" : [ ]
  },
  "source" : "a2f4cb8858c41beb.json",
  "parameterValues" : [ "4" ]
}