{
  "uid" : "f20554dce4cc786e",
  "name" : "test_list_not_found[5]",
  "fullName" : "tests.method_get.test_user.TestGetUser#test_list_not_found[5]",
  "historyId" : "1bf538f3e1a7dd5f8afdf9336a240516",
  "time" : {
    "start" : 1533478958533,
    "stop" : 1533478959147,
    "duration" : 614
  },
  "description" : "\n        The value is above valid boundary value.\n        ",
  "descriptionHtml" : "<pre><code>    The value is above valid boundary value.\n</code></pre>\n",
  "status" : "passed",
  "flaky" : false,
  "beforeStages" : [ {
    "name" : "base_request",
    "time" : {
      "start" : 1533478958531,
      "stop" : 1533478958531,
      "duration" : 0
    },
    "status" : "passed",
    "steps" : [ ],
    "attachments" : [ ],
    "parameters" : [ ],
    "stepsCount" : 0,
    "attachmentsCount" : 0,
    "shouldDisplayMessage" : false,
    "hasContent" : false
  } ],
  "testStage" : {
    "description" : "\n        The value is above valid boundary value.\n        ",
    "status" : "passed",
    "steps" : [ ],
    "attachments" : [ {
      "uid" : "2c1b9ee944cdd91c",
      "name" : "< GET /api/users?page=5 HTTP/1.1\r\n< Host: reqres.in\r\n< User-Agent: Mozilla/5.0\r\n< Accept-Encoding: gzip, deflate\r\n< Accept: text/plain\r\n< Connection: keep-alive\r\n< Content-type: application/json\r\n< \r\n\r\n> HTTP/1.1 200 OK\r\n> Date: Sun, 05 Aug 2018 14:22:39 GMT\r\n> Content-Type: application/json; charset=utf-8\r\n> Transfer-Encoding: chunked\r\n> Connection: keep-alive\r\n> Set-Cookie: __cfduid=dd497c594fb26f86c74098a54d543cb1d1533478958; expires=Mon, 05-Aug-19 14:22:38 GMT; path=/; domain=.reqres.in; HttpOnly\r\n> X-Powered-By: Express\r\n> Access-Control-Allow-Origin: *\r\n> ETag: W/\"3c-IltKQk35sTzQkL/yv5nUo7521gw\"\r\n> Expect-CT: max-age=604800, report-uri=\"https://report-uri.cloudflare.com/cdn-cgi/beacon/expect-ct\"\r\n> Server: cloudflare\r\n> CF-RAY: 4459eac47ba3bf2a-FRA\r\n> Content-Encoding: gzip\r\n> \r\n{\"page\":5,\"per_page\":3,\"total\":12,\"total_pages\":4,\"data\":[]}",
      "source" : "2c1b9ee944cdd91c.attach",
      "type" : "text/plain",
      "size" : 20
    } ],
    "parameters" : [ ],
    "stepsCount" : 0,
    "attachmentsCount" : 1,
    "shouldDisplayMessage" : false,
    "hasContent" : true
  },
  "afterStages" : [ ],
  "labels" : [ {
    "name" : "severity",
    "value" : "normal"
  }, {
    "name" : "host",
    "value" : "asus-UX32LN"
  }, {
    "name" : "thread",
    "value" : "9694-MainThread"
  }, {
    "name" : "framework",
    "value" : "pytest"
  }, {
    "name" : "language",
    "value" : "cpython3"
  }, {
    "name" : "package",
    "value" : "tests.method_get.test_user"
  }, {
    "name" : "resultFormat",
    "value" : "allure2"
  } ],
  "parameters" : [ {
    "name" : "page",
    "value" : "5"
  } ],
  "links" : [ ],
  "hidden" : true,
  "retry" : true,
  "extra" : {
    "categories" : [ ],
    "tags" : [ ]
  },
  "source" : "f20554dce4cc786e.json",
  "parameterValues" : [ "5" ]
}